<?xml version="1.0" encoding="UTF-8" standalone="no"?>
<svg
   xmlns:dc="http://purl.org/dc/elements/1.1/"
   xmlns:cc="http://creativecommons.org/ns#"
   xmlns:rdf="http://www.w3.org/1999/02/22-rdf-syntax-ns#"
   xmlns:svg="http://www.w3.org/2000/svg"
   xmlns="http://www.w3.org/2000/svg"
   xmlns:sodipodi="http://sodipodi.sourceforge.net/DTD/sodipodi-0.dtd"
   xmlns:inkscape="http://www.inkscape.org/namespaces/inkscape"
   sodipodi:docname="explore.svg"
   inkscape:version="1.0 (4035a4fb49, 2020-05-01)"
   width="16.0px"
   height="16.0px"
   viewBox="0 0 16.0 16.0"
   version="1.1"
   id="SVGRoot">
  <defs
     id="defs833" />
  <sodipodi:namedview
     inkscape:window-maximized="1"
     inkscape:window-y="-8"
     inkscape:window-x="-8"
     inkscape:window-height="1027"
     inkscape:window-width="1920"
     showgrid="true"
     inkscape:document-rotation="0"
     inkscape:current-layer="layer1"
     inkscape:document-units="px"
     inkscape:cy="2.8766287"
     inkscape:cx="-33.623126"
     inkscape:zoom="7.9195959"
     inkscape:pageshadow="2"
     inkscape:pageopacity="0"
     borderopacity="1.0"
     bordercolor="#666666"
     pagecolor="#000000"
     id="base">
    <inkscape:grid
       enabled="false"
       type="xygrid"
       id="grid1403" />
  </sodipodi:namedview>
  <metadata
     id="metadata836">
    <rdf:RDF>
      <cc:Work
         rdf:about="">
        <dc:format>image/svg+xml</dc:format>
        <dc:type
           rdf:resource="http://purl.org/dc/dcmitype/StillImage" />
        <dc:title></dc:title>
      </cc:Work>
    </rdf:RDF>
  </metadata>
  <g
     id="layer1"
     inkscape:groupmode="layer"
     inkscape:label="Layer 1">
    <path
       d="M 8.048558,1.7879745 A 6.2593764,6.2593764 0 0 0 1.7891816,8.0473509 6.2593764,6.2593764 0 0 0 8.048558,14.306727 6.2593764,6.2593764 0 0 0 14.307934,8.0473509 6.2593764,6.2593764 0 0 0 8.048558,1.7879745 Z m 3.29473,2.5489843 a 0.39186441,0.39186441 0 0 1 0.343838,0.6189081 L 8.9211419,8.8282447 a 0.39186441,0.39186441 0 0 1 -0.09169,0.09169 L 4.957074,11.685919 A 0.39186441,0.39186441 0 0 1 4.4099898,11.138835 L 7.175974,7.2664571 a 0.39186441,0.39186441 0 0 1 0.022922,-0.029035 0.39186441,0.39186441 0 0 1 0.068767,-0.062655 L 11.140043,4.4087828 a 0.39186441,0.39186441 0 0 1 0.203245,-0.071824 z"
       style="fill:#ffffff;stroke-width:0.123623"
       id="path1410" />
    <circle
       r="0.0035232592"
       cy="-4.9107141"
       cx="4.9107141"
       style="fill:#ffffff;stroke:#000000"
       id="path1414" />
    <circle
       r="0.53664356"
       cy="8.0180855"
       cx="8.0812206"
       id="path1442"
       style="fill:#ffffff;fill-opacity:1;stroke:none;stroke-width:1.00157;stroke-linecap:round;stroke-linejoin:round;stroke-miterlimit:4;stroke-dasharray:none;stroke-opacity:1" />
  </g>
</svg>
