<?xml version="1.0" encoding="UTF-8" standalone="no"?>
<svg
   xmlns:dc="http://purl.org/dc/elements/1.1/"
   xmlns:cc="http://creativecommons.org/ns#"
   xmlns:rdf="http://www.w3.org/1999/02/22-rdf-syntax-ns#"
   xmlns:svg="http://www.w3.org/2000/svg"
   xmlns="http://www.w3.org/2000/svg"
   xmlns:sodipodi="http://sodipodi.sourceforge.net/DTD/sodipodi-0.dtd"
   xmlns:inkscape="http://www.inkscape.org/namespaces/inkscape"
   sodipodi:docname="phone.svg"
   inkscape:version="1.0 (4035a4fb49, 2020-05-01)"
   width="16.0px"
   height="16.0px"
   viewBox="0 0 16.0 16.0"
   version="1.1"
   id="SVGRoot">
  <defs
     id="defs859" />
  <sodipodi:namedview
     inkscape:window-maximized="1"
     inkscape:window-y="-8"
     inkscape:window-x="-8"
     inkscape:window-height="1027"
     inkscape:window-width="1920"
     showgrid="true"
     inkscape:document-rotation="0"
     inkscape:current-layer="layer1"
     inkscape:document-units="px"
     inkscape:cy="-14.448456"
     inkscape:cx="-16.938098"
     inkscape:zoom="5.6"
     inkscape:pageshadow="2"
     inkscape:pageopacity="0.0"
     borderopacity="1.0"
     bordercolor="#666666"
     pagecolor="#ffffff"
     id="base">
    <inkscape:grid
       enabled="false"
       type="xygrid"
       id="grid1429" />
  </sodipodi:namedview>
  <metadata
     id="metadata862">
    <rdf:RDF>
      <cc:Work
         rdf:about="">
        <dc:format>image/svg+xml</dc:format>
        <dc:type
           rdf:resource="http://purl.org/dc/dcmitype/StillImage" />
        <dc:title></dc:title>
      </cc:Work>
    </rdf:RDF>
  </metadata>
  <g
     id="layer1"
     inkscape:groupmode="layer"
     inkscape:label="Layer 1">
    <path
       d="m 12.134665,2.0488776 c -0.178053,-0.017871 -0.375289,0.038828 -0.552734,0.2675782 L 9.945213,4.4277839 c 0,0 -0.5458968,0.545901 0,1.0917969 0,0 0.545895,0.5459 0,1.0917968 L 9.7401343,6.8164558 8.3065416,8.2500495 6.8729479,9.6816901 6.6698229,9.8867681 c -0.5458965,0.5458959 -1.0917968,0 -1.0917968,0 -0.5458967,-0.545897 -1.091797,0 -1.091797,0 L 2.3749011,11.52544 c -0.6100008,0.473187 0,1.091797 0,1.091797 l 1.564453,1.091797 c 0.6332021,0.441656 1.0917969,0 1.091797,0 2.4020644,-1.77555 4.7226552,-4.0117189 4.7226552,-4.0117189 0,0 2.2361687,-2.3205911 4.0117187,-4.7226562 0,0 0.441657,-0.4585952 0,-1.0917969 L 12.673728,2.3164558 c 0,0 -0.242306,-0.2377929 -0.539063,-0.2675782 z"
       style="fill:#000000;fill-opacity:1;stroke:none;stroke-width:0.772014px;stroke-linecap:butt;stroke-linejoin:miter;stroke-opacity:1"
       id="path1440" />
  </g>
</svg>
