<?xml version="1.0" encoding="UTF-8" standalone="no"?>
<svg
   xmlns:dc="http://purl.org/dc/elements/1.1/"
   xmlns:cc="http://creativecommons.org/ns#"
   xmlns:rdf="http://www.w3.org/1999/02/22-rdf-syntax-ns#"
   xmlns:svg="http://www.w3.org/2000/svg"
   xmlns="http://www.w3.org/2000/svg"
   xmlns:sodipodi="http://sodipodi.sourceforge.net/DTD/sodipodi-0.dtd"
   xmlns:inkscape="http://www.inkscape.org/namespaces/inkscape"
   id="SVGRoot"
   version="1.1"
   viewBox="0 0 8.9961977 14.269058"
   height="14.269058"
   width="8.9961977"
   inkscape:version="1.0 (4035a4fb49, 2020-05-01)"
   sodipodi:docname="marker.svg">
  <defs
     id="defs2029" />
  <sodipodi:namedview
     id="base"
     pagecolor="#ffffff"
     bordercolor="#666666"
     borderopacity="1.0"
     inkscape:pageopacity="0.0"
     inkscape:pageshadow="2"
     inkscape:zoom="16"
     inkscape:cx="-3.3832847"
     inkscape:cy="8.6223283"
     inkscape:document-units="px"
     inkscape:current-layer="layer1"
     inkscape:document-rotation="0"
     showgrid="true"
     inkscape:window-width="1418"
     inkscape:window-height="1041"
     inkscape:window-x="104"
     inkscape:window-y="0"
     inkscape:window-maximized="0">
    <inkscape:grid
       id="grid2599"
       type="xygrid"
       enabled="false"
       originx="-0.042456075"
       originy="-0.034146328" />
  </sodipodi:namedview>
  <metadata
     id="metadata2032">
    <rdf:RDF>
      <cc:Work
         rdf:about="">
        <dc:format>image/svg+xml</dc:format>
        <dc:type
           rdf:resource="http://purl.org/dc/dcmitype/StillImage" />
        <dc:title />
      </cc:Work>
    </rdf:RDF>
  </metadata>
  <g
     inkscape:label="Layer 1"
     inkscape:groupmode="layer"
     id="layer1"
     transform="translate(-0.04245609,-0.03414633)">
    <path
       sodipodi:nodetypes="cccccsssss"
       id="path3062"
       style="fill:#418acd;fill-opacity:1;stroke:none;stroke-width:0.377953;stroke-linecap:butt;stroke-linejoin:miter;stroke-miterlimit:4;stroke-dasharray:none;stroke-opacity:1;paint-order:normal"
       d="m 4.5288117,0.03448619 c -5.7681747,0 -4.32612767,5.76817181 -4.32612767,5.76817181 0.618231,2.3072679 4.32612767,8.500547 4.32612767,8.500547 0,0 3.708168,-6.1942925 4.326127,-8.500547 0,0 1.5450453,-5.81967661 -4.326127,-5.76817181 z m 0,2.88408691 c 0.7964216,-2.1e-6 1.4420459,0.645621 1.4420459,1.4420403 0,0.7964193 -0.6456243,1.4420467 -1.4420459,1.4420446 C 3.73239,5.8026601 3.086765,5.1570327 3.086765,4.3606134 c 0,-0.7964193 0.645625,-1.4420424 1.4420467,-1.4420403 z" />
  </g>
</svg>
